{
  "keys": ["productName", "proposalNumber", "proposerName", "supervisorName", "adviserName", "submissionDate", "expiryDate", "agentName", "actionLink"],
  "email": {
    "subject": "New proposalNumber, productName by agentName for FA Firm approval",
    "template": "Dear FA Firm,<br/><br/>The case from adviserName under supervisorName submitted on submissionDate, proposalNumber for proposerName is pending for your validation. Please validate before expiryDate, otherwise the submitted case will expire and your Financial Consultant will need to revisit customer and resubmit the case.<br/><br/>Please review the documents and validate the case via the link.<br/><a href='actionLink'>Click here to take action</a><br/><br/> AXA Insurance Pte Ltd<p><img src='cid:part1.1234.56789' height='70' width='75'></p>"
  }
}
