{
  "keys": ["agentName", "productName", "adviserName", "submissionDate", "proposalNumber", "proposerName", "expiryDate", "actionLink"],
  "sms": "productName submitted by adviserName on submissionDate, proposalNumber for proposerName is pending validation. Please do so before expiryDate, otherwise case will expire and needs to be recreated.",
  "email": {
    "subject": "New proposalNumber, productName by agentName",
    "template": "Dear Supervisor,<br /><br />adviserName submitted productName proposalNumber on submissionDate, for proposerName for your validation.<br />Please validate before expiryDate. Otherwise, the case will be invalid and your Financial Consultant will need to revisit the customer and resubmit the case.<br /><br />Please review the documents and validate the case via the link.<br /><a href='actionLink'>Click here to take action</a><br /><br />AXA Insurance Pte Ltd<p><img src='cid:part1.1234.56789' height='70' width='75'></p>"
  }
}
