{
  "keys": ["proposalNumber", "proposerName", "productName", "adviserName"],
  "sms": "The case proposalNumber for proposerName has been submitted to CDA team for validation.",
  "email": {
    "subject": "Case productName proposalNumber submitted to CDA team for validation",
    "template": "Dear adviserName,<br /><br />The case proposalNumber for proposerName is submitted to CDA team for validation.<br /><br />AXA Insurance Pte Ltd<p><img src='cid:part1.1234.56789' height='70' width='75'></p>"
  }
}
