{
	"version":"0.0.1",
	"languages": [
		{
			"id"	:"en",
			"title":"English",
			"filename":"en.lang"
		},
		{
			"id"	:"zh-hant",
			"title":"繁體中文",
			"filename":"zht.lang"
		}
	]
}
